{
   "website-translation-credits": {
      "translation": [
         "Torpak <https://github.com/torpak>"
         "Ret Samys  <https://framagit.org/RetSamys>"
         "Dirk <mailto:just.helping@terraformer.de>"
      ]
   }
}
