<?xml version="1.0" encoding="UTF-8"?>
<svg width="560" height="120" version="1.1" xmlns="http://www.w3.org/2000/svg">
 <g transform="matrix(.3553 0 0 .3553 -160.1 -62.69)">
  <path d="m-32.352 160.56c-1.975-1.734-4.244-4.416-5.042-5.959l-1.451-2.806v-8.202l4.917-4.916 1.798-0.0318c0.9889-0.0181 2.667-0.6892 3.729-1.493l1.931-1.461 1.5-10.53 0.145-45.7-2.074-3.874h-1.786c-0.9823 0-4.175-0.7095-7.095-1.577l-5.309-1.577-4.768-4.768v-3.096l11.52-0.0825 9.014-4.424 0.2862-35.05 0.286-35.05-2.378-8.666-4.204-2.726-17.53-1.403v-2.4l8.859-8.986 25.35-11.46 1.929 0.6122c1.061 0.3367 3.279 1.748 4.928 3.136l2.999 2.524v1.342c0 0.7379 0.7082 2.05 1.574 2.915l1.574 1.574h20.66l8.682 2.516c4.775 1.384 10.86 3.617 13.51 4.964 2.656 1.346 8.41 5.145 12.79 8.442l7.955 5.994 5.499 7.934 2.867 9.527v13.52l-3.748 12.04-7.41 13.25-12.05 12.88-6.675 4.919c-3.671 2.705-8.928 6.034-11.68 7.397-2.754 1.363-10.19 4.194-16.52 6.292-6.335 2.097-12.53 4.181-13.77 4.631l-2.253 0.8174v43.2l4.835 4.835 2.84 0.602c1.562 0.3311 3.598 1.01 4.523 1.508l1.683 0.9058 4.367-0.0875c2.402-0.0481 6.668 0.2288 9.48 0.6155l5.113 0.7032 6.364-3.291 2.949 0.6477c1.622 0.3562 4.969 0.6477 7.438 0.6477s4.489 0.2108 4.489 0.4684-1.628 1.148-3.617 1.979c-3.649 1.525-11.5 6.45-16.77 10.53l-2.86 2.21-13.03 3.614-9.289 5.906-7.511 2.122c-4.131 1.167-9.804 2.782-12.61 3.589l-5.096 1.467h-8.266l-3.591-3.153zm44.23-107.5 8.865-4.454 16.15-12.96 9.672-11.68 5.727-12.02 8.1e-4 -4.306 8e-4 -4.306-1.466-2.835c-0.8064-1.56-2.864-4.012-4.573-5.45l-3.107-2.614-11.38-3.419-17.03-0.0528-11.07 2.502-6.459 3.928v60.02l1.752 1.021c0.964 0.5615 2.27 1.035 2.903 1.051 0.6325 0.0161 5.139-1.974 10.01-4.424zm73.46 109c-1.377-0.8903-3.734-3.213-5.238-5.162l-2.734-3.543-0.6162-3.284-0.616-3.284 2.695-5.679 8.851-4.247 2.667-3.647v-55.46l-5.258-0.5874c-2.892-0.3231-7.024-0.9439-9.182-1.38l-3.924-0.7921-0.3164-0.9979c-0.1731-0.5488 0.0342-1.551 0.4637-2.227l0.7802-1.229 7.742-1.481c4.258-0.8147 8.181-1.753 8.718-2.084l0.9761-0.6032v-81.1l-2.923-5.652-8.303-1.179c-4.567-0.6486-9.768-1.403-11.56-1.676l-3.255-0.4971v-0.7815c0-0.4298 1.014-1.705 2.253-2.834 2.452-2.233 15.09-10.32 16.13-10.32 0.3528 0 4.656-1.808 9.563-4.017l8.921-4.017 2.846 1.082c1.565 0.5952 3.636 1.797 4.601 2.67l1.754 1.588v5.464l2.253 0.6039c1.239 0.3322 6.769 0.61 12.29 0.6176l10.04 0.0141 7.186 1.991c3.952 1.095 9.749 3.125 12.88 4.51l5.696 2.519 6.627 4.931c3.645 2.712 8.295 6.654 10.33 8.76l3.706 3.828 4.444 10.02 0.448 7.564 0.4482 7.564-5.862 17.01-3.856 5.809c-2.121 3.195-6.115 8.281-8.876 11.3l-5.02 5.493-6.388-1.198-1.044 1.271c-0.5744 0.6992-1.2 2.394-1.391 3.766l-0.3464 2.494-9.856 6.44-24.86 9.103-2.172 0.0161c-1.195 8e-3 -2.848 0.4424-3.674 0.9645l-1.502 0.9492v42.98l2.388 2.542 2.387 2.542 10.4 2.159 9.938-0.0286c5.466-0.0161 12.56-0.0801 15.76-0.1433l5.817-0.1147 1.368 1.368-1.995 1.17c-1.097 0.6435-4.862 2.415-8.367 3.937l-6.372 2.767-2.969 2.498c-1.633 1.374-3.547 2.498-4.253 2.498h-1.284l-4.398 3.863c-2.419 2.125-6.327 4.845-8.686 6.046l-4.289 2.183-19.46 5.291-10.02 0.6809-2.504-1.619zm40.84-108 7.234-3.467 14.52-10.78 14.02-14.86 2.806-5.789 2.807-5.789 0.5071-4.713 0.5074-4.713-3.623-6.959-8.012-5.573-15.02-3.178-6.51 0.5808c-3.58 0.3195-9.214 1.271-12.52 2.114l-6.009 1.533-4.594 5.186 0.5876 56.57 2.749 3.309h1.658c0.9119 0 4.913-1.56 8.892-3.467zm345.2 77.65c-2.754-0.9817-7.302-2.948-10.11-4.369l-5.098-2.584-3.159-3.597c-1.737-1.979-4.161-5.5-5.385-7.826l-2.227-4.229-0.064-15.02 6.324-13.35 15.54-16.27-2.814-5.886-2.813-5.886 1.201-6.008-2.867-2.379 3.109-6.012-4.445-4.732 0.6352-4.633 0.6351-4.633 3.99-9.019 8.518-10.17 8.793-5.576 10.85-2.428 10.43 3.294 11.43 7.161 7.297 12.01 0.5124 3.821 0.5126 3.821-4.422 14.01-3.848 4.9c-2.116 2.695-5.502 7.378-7.524 10.41-2.022 3.03-5.026 6.706-6.675 8.17l-2.998 2.662 0.8527 1.455c0.4689 0.8 4.956 5.811 9.972 11.14l9.119 9.681 2.392-2.882 0.2013-2.842 0.2012-2.842-7.501-0.621-5.018-6.579v-4.174l2.869-2.869 8.33-2.59c4.582-1.424 10.58-3.102 13.34-3.727l5.008-1.138 12.02-0.3952c6.61-0.2174 14.38-0.6631 17.28-0.9905l5.258-0.5953-6e-4 1.324-4e-4 1.324-7.123 6.51c-3.917 3.58-8.536 7.917-10.26 9.637l-3.142 3.127-4.885 0.7092c-2.687 0.39-5.504 0.9464-6.259 1.236l-1.374 0.5273v9.726l-4.274 11.42 2.878 2.088c1.583 1.148 4.685 3.479 6.894 5.179l4.016 3.091-0.1852 1.416c-0.1026 0.7786-0.8092 3.102-1.571 5.164l-1.385 3.748-4.719 5.023-6.161-8e-3 -3.279-1.999c-1.804-1.099-3.884-1.999-4.622-1.999s-2.489-0.9014-3.889-2.003c-1.401-1.102-3.151-1.991-3.891-1.977s-3.823 1.608-6.852 3.542l-5.508 3.517-18.95 5.935-10.09-0.1465-5.008-1.785zm24.3-24.24 4.403-2.131 0.49039-1.278 0.4903-1.278-20.67-20.21-2.418-0.012-2.797 3.687c-1.538 2.028-4.262 5.04-6.052 6.694l-3.255 3.008v2.708l4.256 4.343c2.341 2.389 5.158 4.837 6.26 5.441l2.003 1.099 12.89 0.0608 4.403-2.131zm-5.358-61.55 7.732-6.597 3.862-6.334v-6.356l-4.967-5.903-6.016-2.492-6.923 1.299-2.716 3.221c-1.494 1.771-3.323 4.671-4.066 6.444l-1.351 3.223v7.758l1.418 4.712c1.409 4.681 3.169 7.624 4.56 7.624 0.3993 0 4.206-2.969 8.458-6.597zm177.6 58.68c-3.15-0.4041-8.921-1.762-12.83-3.017l-7.097-2.282-5.947-3.612c-3.271-1.987-8.252-5.415-11.07-7.618l-5.121-4.006-11.58-13.63-3.03-5.704c-1.666-3.137-3.951-8.633-5.077-12.21-1.126-3.58-3.003-11.68-4.172-18.01l-2.125-11.5 0.4449-4.528c0.6432-6.542 3.474-21.07 6.263-32.15 2.777-11.03 8.717-28.53 11.69-34.44 4.428-8.806 15.57-26.49 22.41-35.57 3.967-5.266 10.3-12.74 14.08-16.6 3.778-3.863 10.02-9.408 13.88-12.32l7.007-5.297 16.61-8.23 21.46-0.1348 9.514 3.839c5.233 2.112 10.42 3.914 11.52 4.006l2.003 0.1668 1.001-11.11 3.716-5.669 11.02 1.295 10.83 5.121 6.987 6.59v5.014c0 2.758-0.2818 6.424-0.62629 8.146l-0.6261 3.131-3.95 4.488-3.951 4.488 1.26 2.038h3.666l4.626 3.746-1.189 13.9c-1.369 16-2.396 23.64-4.536 33.75-0.8378 3.957-1.96 9.447-2.493 12.2-0.5337 2.754-1.712 8.321-2.619 12.37l-1.648 7.362-4.972 9.812h-1.736l-0.604-2.253c-0.3322-1.239-0.6099-4.634-0.6176-7.543l-0.02-5.29-2.706-6.478-0.73859-12.96-0.7384-12.96-8.583-25.12-8.626-16.82-7.197-7.565-5.549-1.393-4.386 1.675c-2.412 0.9214-7.238 3.557-10.72 5.857l-6.336 4.182-18.67 18.92-14.76 22.18-7.001 14.52c-7.518 15.6-12.55 28.49-16.66 42.64l-2.572 8.875-0.6202 7.541-0.6203 7.541-4.688 5.641 1.474 2.85c0.8106 1.567 2.758 3.904 4.327 5.191l2.853 2.342 2.683 4.698 2.682 4.698 9.499 9.727 9.705 4.683 22.34-1.05 9.698-3.142c5.334-1.728 12.29-4.288 15.46-5.688l5.759-2.547 3.559 0.9307 5.752-5.497 14.12-5.397 1.866-2.062c1.027-1.134 3.043-2.671 4.482-3.415l2.615-1.352 2.376-5.602 5.669-3.443c3.118-1.894 7.362-4.973 9.431-6.843l3.762-3.399 7.95-12.59 2.996-1.15 2.451 2.954-1.117 2.219c-0.61429 1.221-2.224 6.81-3.577 12.42l-2.46 10.2-9.668 17.65-13.39 13.4-5.747 2.972-3.862-0.345-5.572 11.02-21.51 13.4-18.03 5.986-7.834 1.071c-8.579 1.173-13.24 1.189-21.93 0.0739zm-944.6-17.42-3.868-1.454-5.967-5.667-3.933-7.648-1.125-9.495 4.778-5.554 12.55-1.48 3.41-3.41 0.5138-9.235 0.5136-9.235 6.009-1.023 0.3107-2.687 0.3109-2.687-2.815-1.792c-1.548-0.9857-3.146-2.253-3.55-2.817l-0.736-1.025-0.0402-57.64 1.252-0.3857c0.6885-0.2121 2.442-0.6448 3.896-0.9614l2.644-0.5758 0.6362-1.657 0.636-1.657-1.277-1.709c-0.7022-0.9401-2.794-3.691-4.648-6.113l-3.371-4.404 0.8096-16.02c0.4452-8.813 0.8356-20.38 0.8674-25.71l0.0584-9.686-4.837-5.145-11.19-4.171-4.345-4.058-4.266-9.916-0.33-11.84 4.691-4.994 17.27-6.312 31.05-5.793 36.05 0.0426 19.26 1.874 8.23 3.004c4.526 1.652 11.02 4.562 14.42 6.466 3.406 1.905 8.233 5.259 10.73 7.455l4.535 3.992 12.71 17.72 9.599 20.03 3.364 13.02 0.18119 15.02-2.594 11.02-7.831 16.02-5.754 6.686c-3.165 3.677-8.008 8.687-10.76 11.13-2.754 2.446-8.537 6.978-12.85 10.07l-7.844 5.626-12.19 5.896c-15.36 7.433-33.29 14.61-41.73 16.71-3.58 0.8894-8.18 2.046-10.22 2.57l-3.71 0.9524-3.095 3.095v25.98l4.594 4.594 8.165 1.306 2.508 3.022 10.27 0.0282 8.646 3.011 0.9278-0.5733c0.8734-0.5399 21.96-1.661 28.48-1.515 1.652 0.037 4.582 0.0739 6.51 0.0817 1.928 8e-3 4.119 0.2344 4.87 0.5034l1.365 0.4891-2.474 2.98h-1.564c-0.8603 0-3.622 0.9574-6.137 2.128-2.515 1.17-7.277 3.384-10.58 4.92-3.305 1.536-8.713 3.556-12.02 4.489-3.305 0.9329-7.489 2.324-9.298 3.092l-3.289 1.395h-7.498l-2.19 1.534c-3.274 2.293-9.677 4.366-20.29 6.569l-9.514 1.975-24.04 1.001-3.869-1.454zm74.84-111.5 8.878-3.508 8.668 1.3 3.211-4.901-1.206-4.806 3.952-3.578 4.301 2.302 3.049-2.531-0.5572-2.786-0.5571-2.786 5.003-5.717c6.249-7.142 11.29-14.69 14.78-22.13l2.694-5.75 6e-4 -9.014 6.1e-4 -9.014-5.329-11.37-8.197-8.892-11.68-5.241-15.37-2.286-9.758 1.184c-5.367 0.6512-10.51 1.401-11.43 1.666l-1.671 0.4824-6.938-6.092h-4.172l-1.037 1.937c-0.5701 1.065-1.037 3.018-1.037 4.339v2.402l-3.677 2.421c-2.022 1.332-4.56 3.622-5.639 5.089l-1.962 2.668-0.8241 15.86-0.8243 15.86-0.0926 57.2 1.252 1.578c0.6885 0.8682 1.928 1.781 2.754 2.029l1.502 0.4508 23.03-4.864 8.878-3.508zm94.28 109.2c-1.652-0.2192-5.405-1.076-8.339-1.903l-5.335-1.505-8.446-8.446-8.798-23-0.4178-13.48-0.418-13.48 1.189-7.374 1.19-7.374 2.412-7.091c1.326-3.9 4.028-10.03 6.004-13.63 4.303-7.828 11.15-16.93 17.68-23.5l4.775-4.802 16.6-7.966 10.21-1.21 10.39 5.656 10.64 10.22 4.995 9.915 2.252 10.61v25.44l-1.045 3.765-1.046 3.765-4.407 2.86-7.011 1.146c-7.029 1.149-41.56 9.725-49.07 12.19l-4.006 1.313-3.491 7.137 1.698 4.444c0.934 2.444 2.75 6.15 4.035 8.236l2.336 3.792 6.439 4.061 12.2-0.8725 6.42-2.831c3.531-1.557 11.83-6.065 18.43-10.02l12.01-7.187 2.729 1.047-0.5353 3.3c-0.2946 1.815-1.444 5.353-2.554 7.864l-2.019 4.564h-4.976l-3.282 3.282 0.159 4.118c0.0885 2.265 0.1187 4.606 0.0664 5.204l-0.0926 1.086-17.58 8.356-6.982 1.479c-6.915 1.465-9.171 1.587-14.99 0.8152zm9.573-73.9 16.47-3.703 8.342-3.632 2.174-4.063v-21.12l-3.229-8.071-4.731-1.187-9.042 4.377-7.483 6.988c-4.116 3.844-9.02 9.101-10.9 11.68-1.878 2.583-5.325 8.379-7.659 12.88l-4.244 8.184 1.419 2.296 1.209-0.464c0.6651-0.2552 8.619-2.13 17.68-4.167zm317.3 72.22c-1.993-0.7121-5.264-2.309-7.27-3.548l-3.647-2.254-2.506-4.276c-1.378-2.352-4.191-8.96-6.251-14.68l-3.745-10.41 0.1852-32.05 4.34-16.02 8.121-17.03 5.425-7.098c2.984-3.904 7.92-9.458 10.97-12.34l5.545-5.244 15.09-6.97 9.751-1.155 8.679 4.238 12.44 11.13 3.297 6.691 3.296 6.691 0.3244 17.55 0.3246 17.55-2.062 5.404-4.596 2.982-9.044 1.559c-4.974 0.8572-17.59 3.835-28.04 6.617l-19 5.058-9.013 4.42 0.338 12.36 4.087 9.24 7.029 2.937 14.59-0.0322 16.89-6.85 3.805 2.036 1.83-1.656c1.006-0.9107 2.079-2.637 2.385-3.835l0.5551-2.18 12.6-8.513h3.686l2.865-2.04c1.575-1.122 4.95-2.962 7.498-4.09l4.634-2.05 0.5234 0.5236 0.5237 0.5236-3.357 8.791-3.905 5.159c-2.148 2.838-4.804 6.923-5.904 9.078l-1.999 3.918-10.14 8.866-18.48 9.299-9.532 2.501-3.1-4.426-5.394 8e-3 -4.006 2.467c-2.203 1.357-4.682 2.462-5.508 2.455-0.8261-6e-3 -3.133-0.5953-5.125-1.307zm16.14-71.79c7.436-1.647 16.34-3.923 19.79-5.057l6.27-2.063 2.212-4.132 0.1348-11.62 0.1349-11.62-4.168-7.01-7.014 0.1988-12.31 8.362-4.759-1.194-3.294 3.294 0.61339 2.444 0.6136 2.444-3.971 5.245c-2.184 2.885-5.84 8.681-8.124 12.88l-4.153 7.635v4.494l2.253-0.6527c1.239-0.359 8.337-2 15.77-3.648zm622.2 72.47-2.233-0.4314-4.046-5.144v-3.49l-2.829-2.348-6.07 2.555c-3.338 1.405-9.574 3.712-13.86 5.126l-7.789 2.572-18.19 1.138-10.63-3.53-7.728-6.982-3.016-10.16v-9.56l4.853-13.37 7.497-10.88 11.19-8.076 24.04-11.71 17.64-4.4 4.206-3.406-2.212-19.47-3.616-7.397-16.02-0.564-16.02 7.789-7.511 5.573c-4.131 3.065-8.087 6.172-8.79 6.903-0.7034 0.7316-2.362 2.682-3.686 4.335l-2.407 3.005-1.205-1.185-1.204-1.185 2.703-6.827c1.486-3.755 4.138-9.24 5.892-12.19l3.189-5.362 5.883-4.934c3.235-2.714 7.757-6.032 10.05-7.375 2.291-1.343 6.178-3.157 8.639-4.033l4.474-1.592 14.41-0.081 10.71 4.905 7.339 6.444 4.859 10.38 2.278 10.82 0.9642 14.12c0.5303 7.764 0.9708 18.06 0.9791 22.88l0.02 8.763h0.9425c0.5182 0 1.221-0.4507 1.561-1.002l0.6189-1.002h4.138l-0.6501 3.255c-0.35741 1.79-1.991 6.122-3.63 9.627l-2.98 6.372v3.782h1.057c0.5808 0 3.623-1.316 6.76-2.925 8.406-4.311 14.69-7.09 16.03-7.09h1.186v0.9307c0 0.5119-1.834 3.692-4.075 7.066l-4.075 6.135-0.7718 4.883-0.772 4.883-3.245 4.953-10.6 6.015-5.44 1.596c-2.992 0.8777-5.696 1.534-6.009 1.459-0.3132-0.0751-1.574-0.3305-2.803-0.5678zm-35.82-22.8 7.694-1.472 5.664-2.583c3.115-1.421 7.356-3.75 9.424-5.177l3.76-2.594 3.997-6.468v-8.368l-4.917-4.916h-3.852l-3.01-4.506-3.833 3.443-13.56 4.188-3.692 3.264c-2.031 1.795-5.816 4.762-8.412 6.593l-4.72 3.33-2.44 3.612c-1.342 1.987-2.748 4.648-3.124 5.915l-0.684 2.302 3.217 4.909h10.79zm-507.6 18.1-3.675-3.675-5.008-9.882v-4.956l2.494-1.541 17.04-0.0792 0.603-20.03 0.6029-20.03 1.23-5.243 1.229-5.243-0.3303-12.96-0.3302-12.96-4.436-4.716 0.579-2.214 0.5792-2.214-3.367-1.292-4.372 2.3-10.02-3.83-0.3409-1.695-0.3411-1.695 4.447-4.733 17.27-6.344 11.14-0.2367 5.55 3.637 2.837 6.79v10.08l2.504-1e-3 11.46-12.81 8.707-4.215h4.609c2.535 0 5.357 0.2868 6.27 0.6373l1.661 0.6374 1.8 4.734h5.684l5.134 5.508 8.26 17.1-0.058 1.968c-0.032 1.082-0.8611 5.05-1.843 8.817l-1.786 6.849-8.832 3.946-5.322 5.085-11.96-5.366-1.088-2.387-1.087-2.387 0.8298-0.5129 0.8299-0.5129 3.582 3.958h5.316l3.28-2.504 1.541-4.507c0.8477-2.479 1.548-5.316 1.556-6.305l0.02-1.798-2.504-2.504c-1.377-1.377-2.504-2.855-2.504-3.285 0-0.4298-1.043-1.761-2.318-2.959l-2.318-2.178h-10.94l-4.496 3.149-2.843 5.686c-1.564 3.128-3.57 7.94-4.458 10.69-0.8883 2.754-2.766 11.76-4.174 20.01l-2.559 15-0.2012 15.52 3.432 5.238 8.608 3.808 1.09 4.167 4.108-2.199 3.929 2.453 4.976-2.664 2.831 0.7067c1.557 0.3887 3.507 1.287 4.334 1.996 0.8263 0.7093 2.751 1.586 4.277 1.949l2.775 0.6595 4.18-2.237 1.917 1.917-3.432 3.432-4.06-1.062-2.578 1.387c-3.917 2.108-12.1 4.527-15.31 4.527h-2.866l-8.433 4.365-11.02 0.7417c-6.059 0.4079-15.33 1.064-20.61 1.459l-9.595 0.717-3.675-3.675zm581.1 0.758c-1.43-1.575-3.346-3.978-4.256-5.34l-1.656-2.476v-5.564l1.963-1.964 1.964-1.964 11.09-3.225 0.571-2.275 0.5709-2.275-0.3192-35.96-0.3193-35.96-4.114-7.004-6.902-4.651v-2.366l9.514-3.229c5.233-1.776 10.42-3.241 11.52-3.255l2.003-0.0254 5.19 6.51 1.281 4.006c0.7048 2.203 1.663 4.419 2.129 4.924l0.8475 0.9182 14.59-15.15 8.513-2.285 7.555 2.034 8.499 6.25 2.391 4.159c1.315 2.287 2.687 5.584 3.05 7.325l0.6591 3.166-1.129 6.348c-0.621 3.491-2.266 10.11-3.656 14.71l-2.527 8.361-11.85 12.14-0.6152-0.6152-0.615-0.6152 3.427-13.98-1.139-20.52-2.022-2.022-11.12 3.506-3.084 4.193c-1.696 2.306-3.707 5.643-4.467 7.417l-1.383 3.224-5.006 32.98v12.24l1.465 2.833c0.8058 1.558 2.045 3.05 2.754 3.315 0.709 0.2648 6.697 0.1594 13.31-0.2343l12.02-0.7157 1.81 1.62-2.746 3.6c-1.51 1.98-4.206 4.557-5.991 5.727l-3.245 2.127-4.33 6.606-5.239 3.432-9.66 0.7247c-5.313 0.3986-13.94 1.041-19.17 1.428l-9.514 0.7027-2.6-2.863zm85.54 1.013c-1.201-1.03-3.342-3.626-4.757-5.768l-2.574-3.895v-3.88l5.612-5.612 8.294-1.401 1.934-2.347 0.2134-35.05 0.2135-35.05-2-9.586-3.527-3.897-10.24-3.814-0.5462-2.732 25.4-4.532 2.598 1.652c1.429 0.9086 3.596 2.83 4.815 4.269l2.218 2.617 0.6482 3.255 0.648 3.255 2.281-0.016 9.412-11.8 11.01-5.387 3.308 0.7127c1.82 0.392 4.66 1.386 6.313 2.209 3.856 1.92 8.325 6.075 10.02 9.315l1.327 2.539-1.43 12.98-1.429 12.98-2.966 4.507c-1.631 2.479-3.737 5.971-4.68 7.762l-1.713 3.255h-3.243l-0.194-16.52-3.406-8.474-6.544-4.044h-5.026l-2.003 4.757c-1.102 2.616-2.709 7.011-3.571 9.765-1.701 5.431-5.19 26.72-6.26 38.19l-0.6661 7.14 1.17 3.546c0.6434 1.95 1.711 3.987 2.371 4.527l1.201 0.981 5.508-0.9856c3.03-0.5421 8.212-1.107 11.52-1.256 3.305-0.1485 6.752-0.5918 7.66-0.9851l1.652-0.7149 0.7088 1.147 0.7092 1.147-13.17 12.66-1.564 3.91-1.565 3.91-6.412 3.788-9.534 0.7075c-5.244 0.3891-13.59 1.033-18.55 1.43l-9.013 0.7223-2.183-1.873zm113.9 0.0849-5.508-1.513-10.64-7.287-7.852-9.182-5.836-12.02-2.206-10.61 0.04-18.43 0.9738-6.733 0.9739-6.733 2.15-6.286c2.831-8.274 7.422-17.39 11.12-22.08l2.977-3.777 6.281-4.482c3.455-2.465 8.744-5.61 11.75-6.988l5.473-2.506 14.85-1.21 13.98 3.288 8.368 4.904 6.193 7.819 3.476 7.371c1.912 4.054 4.194 10.07 5.071 13.38l1.595 6.009 0.5599 9.514 0.5596 9.514-1.62 8.513c-0.8914 4.682-2.083 10.16-2.647 12.18l-1.027 3.671-6.963 4.108v1.55c0 0.8523 0.5559 2.44 1.235 3.528l1.235 1.978-1.986 3.703c-1.092 2.037-4.087 6.004-6.654 8.817l-4.668 5.114-10.69 5.904-25.04 0.4857-5.508-1.513zm23.99-20.74 5.523-1.252 7.664-7.636 1.946-4.541 1.947-4.541 2.208-14.23-0.6659-14.07c-0.3663-7.739-0.6476-16.17-0.6249-18.72l0.04-4.652-2.705-1.772c-1.488-0.9749-5.104-3.726-8.035-6.114l-5.33-4.341h-6.57l-10.28 3.054-6.452 5.429-7.618 11.79-0.6109 3.636c-0.3361 2-0.8211 4.404-1.078 5.344-0.2568 0.9395-2.246 3.861-4.42 6.491l-3.952 4.783v3.096l3.697 3.165 0.6879 5.854 0.6881 5.854 8.659 18.28 2.935 2.09c3.464 2.467 8.516 4.045 13.35 4.171 1.912 0.0497 5.961-0.473 8.999-1.162zm89.4 19.7-5.18-2.582-2.575-3.06c-1.416-1.683-3.414-4.705-4.439-6.714l-1.864-3.654-1.093-5.911-1.092-5.911-0.07-26.61-0.071-26.61-1.566-4.006h-14.46l-7.874-8.436v-5.112l-1.16-1.857-1.159-1.857 0.5458-1.423 0.546-1.423 11.82-6.194 11.56-2.586 2.39-4.163-0.2568-20.36-0.257-20.36-2.129-3.978 2.387-2.876h4l11.72 7.12 4.216 5.921 1.166 30.34 3.72 3.72 2.739-0.6581c1.506-0.362 4.316-1.439 6.244-2.393l3.505-1.735 15.74-1.445 7.299-3.11 10.49-0.2041 0.4906 1.28 0.4909 1.28-1.732 1.412c-0.9525 0.7764-3.846 3.13-6.429 5.23-2.584 2.1-8.52 7.233-13.19 11.41l-8.495 7.588-8.841 3.343c-4.862 1.839-9.516 3.96-10.34 4.714l-1.502 1.371-0.3226 27.76-0.3228 27.76 0.6492 5.291 0.649 5.291 4.648 5.404 6.157-2.965 11.4-11.15c6.27-6.134 12.38-11.68 13.57-12.31l2.171-1.162 1.71 1.057-0.8096 4.275c-0.4454 2.351-1.529 5.984-2.409 8.072l-1.599 3.797-6.216 5.554 2.318 4.332-1.573 3.779-1.573 3.778-4.209 4.381c-2.315 2.41-6.213 5.677-8.662 7.261l-4.453 2.88h-11.23l-5.181-2.582z" display="none"/>
  <path d="m848.5 504.27c-3.6413-3.1974-5.0413-4.883-6.5415-7.8754l-0.6781-1.3526v-7.2913l2.2577-2.2432 2.2577-2.2432 1.1439-0.0658c1.7661-0.10129 2.762-0.50926 4.5946-1.8815l1.1287-0.84518 0.68607-4.9087 0.68607-4.9087 0.1442-41.662-0.94073-1.773-0.94073-1.773-0.91742-2e-3c-1.6766-4e-3 -4.5364-0.65034-9.6186-2.1684l-2.4684-0.73731-4.395-4.3798v-2.6782l0.63215-0.076c0.34768-0.0416 2.7183-0.0771 5.268-0.0782l4.6358-2e-3 4.0037-1.9757c2.202-1.0866 4.0642-1.9958 4.1382-2.0205 0.0978-0.034 0.20836-8.8023 0.40475-32.07l0.2702-32.025-2.1942-8.0988-1.9079-1.2375c-1.0493-0.68065-2.0247-1.2567-2.1674-1.2802-0.30969-0.051-15.293-1.2441-15.624-1.2441-0.20814 0-0.22904-0.099-0.22904-1.0857v-1.0858l4.1241-4.1492 4.1241-4.1492 11.486-5.1806c6.3171-2.8493 11.551-5.1806 11.631-5.1806 0.0797 0 0.60858 0.15496 1.1754 0.34393 1.7879 0.59691 3.2504 1.5402 6.1423 3.9618l1.6557 1.3864 9e-5 0.79634c0 1.1887 0.43818 2.0185 1.8188 3.4456l1.1064 1.1437h19.041l4.8143 1.3976c11.962 3.4723 15.334 4.9598 22.684 10.006 2.2267 1.5287 11.29 8.312 11.655 8.7227 0.36264 0.40842 4.863 6.9448 4.9923 7.251 0.0597 0.14135 0.67885 2.1647 1.3758 4.4963l1.2672 4.2393v12.069l-3.4776 11.18-6.8176 12.162-10.955 11.709-3.6128 2.6651c-11.191 8.256-13.617 9.4341-32.393 15.732-3.9074 1.3107-7.9035 2.665-8.8804 3.0096l-1.7761 0.62642v39.531l4.5154 4.4938 1.0235 0.19804c2.6118 0.5054 4.7626 1.1976 6.2267 2.0038l0.86838 0.47827 4.2491 0.0378c4.5192 0.0382 5.8796 0.13947 10.613 0.78985l2.6312 0.36132 2.9246-1.5058 2.9246-1.5058 1.6086 0.35604c2.5333 0.56088 5.4173 0.85054 8.4935 0.85303 1.3583 1e-3 3.2702 0.18256 3.4104 0.32353 0.13455 0.13531-0.74207 0.67329-2.1653 1.3285-5.4037 2.4879-11.069 6.0374-17.486 10.955l-1.6009 1.2268-11.86 3.2828-4.1789 2.6542c-2.2984 1.4599-4.2899 2.7013-4.4256 2.7587-0.13568 0.0575-2.7663 0.81449-5.8458 1.6824-3.0795 0.86789-8.2346 2.332-11.456 3.2535l-5.8567 1.6755h-7.3219l-2.1021-1.8459zm31.082-95.639c1.6165-0.58307 4.8477-2.1011 10.564-4.9626l5.6971-2.8522 14.776-11.852 4.4438-5.3633 4.4438-5.3632 2.61-5.4866 2.61-5.4865v-7.9701l-0.79505-1.5152c-1.446-2.7558-2.8795-4.4608-5.8604-6.9708l-1.724-1.4516-5.2417-1.5735-5.2417-1.5735h-15.668l-9.9889 2.2556-2.9617 1.7922-2.9617 1.7921 0.0253 27.513 0.0253 27.513 1.1744 0.6765c2.0772 1.1967 2.7751 1.3472 4.0738 0.8787zm241.78 69.791-1.746-0.0748-2.348-0.85686c-5.2559-1.918-7.6047-2.9303-12.611-5.4349l-3.1213-1.5616-1.6277-1.8462c-3.1259-3.5456-4.7918-5.9475-6.9526-10.024l-1.335-2.5186v-13.782l5.7196-12.096 14.25-14.921-0.6354-1.3442c-0.3495-0.73928-1.5087-3.1705-2.576-5.4027l-1.9404-4.0586 0.5384-2.6769c0.296-1.4723 0.5383-2.7132 0.5383-2.7577 0-0.0446-0.5689-0.55291-1.2643-1.13-0.6954-0.57709-1.2643-1.0815-1.2643-1.1209 0-0.0393 0.6258-1.286 1.3907-2.7703l1.3907-2.6988-1.4208-1.5114c-0.7814-0.83127-1.6957-1.8159-2.0317-2.188l-0.6109-0.67654 0.5791-4.2246 0.5791-4.2245 1.8416-4.1441 1.8415-4.1441 7.7502-9.2467 8.0301-5.0879 4.9668-1.1127 4.9668-1.1127 4.7668 1.5092 4.7668 1.5092 10.467 6.5577 6.6574 10.976 0.4634 3.4859 0.4634 3.4858-2.0096 6.3787c-1.8733 5.9459-2.0441 6.4236-2.5181 7.041-0.2797 0.36434-1.3865 1.7858-2.4596 3.159-2.2361 2.8614-4.5519 6.0165-6.5194 8.8822-3.4 4.9521-5.2268 7.1702-7.8299 9.5067-0.7616 0.6836-1.5151 1.3671-1.6744 1.5189l-0.2898 0.2759 0.4902 0.82519c0.8816 1.4838 3.4176 4.308 13.25 14.755 2.4776 2.6325 4.5207 4.7864 4.5403 4.7864 0.02 0 0.5254-0.59123 1.124-1.3139l1.0882-1.3139 0.1854-2.5639c0.1135-1.5687 0.1418-2.5909 0.073-2.6335-0.062-0.0382-1.6152-0.19237-3.452-0.34242-2.8045-0.22942-3.3626-0.30577-3.4837-0.47781-0.079-0.11263-1.0976-1.451-2.2631-2.9742l-2.1192-2.7695v-3.8573l1.3084-1.3043 1.3083-1.3043 3.8393-1.1982c7.9904-2.4937 13.109-3.9311 17.687-4.9668l2.8899-0.65382 4.2746-0.13455c13.819-0.43491 23.377-1.0139 26.882-1.6285l0.3311-0.0582v2.4624l-4.3023 3.9287c-5.4125 4.9426-8.0211 7.3815-11.565 10.813-1.5443 1.4951-2.926 2.7581-3.0705 2.8068-0.1446 0.0488-1.5904 0.28158-3.2129 0.51738-3.7544 0.54581-5.8214 0.95709-7.0742 1.4076l-0.9934 0.35717v9.006l-1.9429 5.1825c-1.0686 2.8504-1.922 5.1991-1.8965 5.2194 0.026 0.0189 1.1843 0.86838 2.5751 1.8847 2.1785 1.5919 4.8375 3.5963 8.9551 6.7504l1.0079 0.77208-0.075 0.80205c-0.1172 1.2617-2.2192 7.7189-2.816 8.651-0.106 0.16554-1.0905 1.2602-2.1877 2.4325l-1.9949 2.1315-5.6998 0.016-2.1668-1.3058c-2.3783-1.4332-3.8915-2.143-4.9284-2.3118-0.9321-0.15194-2.1562-0.76615-3.581-1.7975-1.52-1.1004-2.9387-1.8097-3.6196-1.8097-0.9208 0-3.5306 1.4014-8.4052 4.5136l-2.9738 1.8985-17.223 5.3882-3.0946-0.0227c-1.7021-0.0113-3.8804-0.0563-4.8406-0.0971zm16.265-23.739 4.0429-1.9466 0.4576-1.1986 0.4577-1.1986-0.4065-0.39654c-0.2236-0.21808-4.4909-4.3846-9.4828-9.2588l-9.0762-8.8622h-2.2159l-1.1947 1.5882c-2.7819 3.698-4.8758 6.0456-7.8307 8.7795l-2.0939 1.9373v2.4101l2.1751 2.2453c3.9782 4.1065 6.2469 6.0842 8.2336 7.1772l1.211 0.66629 11.68 4e-3zm-11.799-50.804c1.4594-0.99099 5.6522-4.4374 11.365-9.3418l2.6452-2.2709 1.7744-2.8899 1.7744-2.8899v-2.8899l0.01-2.8899-2.1755-2.5888c-1.1965-1.4239-2.243-2.6583-2.3255-2.7432-0.083-0.085-1.3787-0.66436-2.8804-1.2877l-2.7304-1.1333-6.3232 1.1861-0.5152 0.5958c-3.465 4.0065-4.7604 5.9723-6.219 9.4376l-0.7915 1.8804v6.9251l0.8556 2.8347c1.5276 5.0612 2.7217 7.5408 4.0099 8.3263 0.5283 0.32201 0.7154 0.29026 1.5265-0.26079zm147.53 34.683c-2.0158-0.13228-2.3953-0.23924-3.3131-0.93456-4.0573-3.0747-9.6911-15.133-9.7724-20.917 0 0 0.3203-2.3261 1.3745-3.4776 2.8236-3.0844 8.2261-4.8171 16.581-5.3179l1.3556-0.0813-0.162-42.785 2.223-2.9658c2.7843-3.7145 2.4842-5.7567-1.6111-7.8701l-0.692-0.35717v-14.142l-0.3914 0.0862c-0.8995 0.1988-6.3703 0.0998-7.2043-0.1304-4.0318-1.1121-9.1106-12.162-10.415-22.66-0.2973-2.3933-0.3069-6.2303-0.018-7.2762 0.8837-3.2003 2.9872-4.8819 7.6733-6.1339 2.9672-0.79279 6.4647-1.9279 9.2717-3.0091l0.9031-0.34772 0.091-20.274c0.084-18.733 0.1061-20.284 0.2915-20.395 1.9349-1.1613 5.3782 0.74192 0.6495-4.915-0.2333-0.27892-0.5534-0.44333-0.6301-0.44333-0.1048 0-0.1214-2.0487-0.067-8.2783l0.072-8.2783 0.2751-0.18066c1.7873-1.1733 3.5819-0.55556 3.6942-2.4587 0.1141-1.9327-1.7618-5.6971-3.3122-6.6573l-0.5428-0.33637 0.068-1.3848c0.038-0.76161 0.1037-3.5914 0.1469-6.2885l0.079-4.9038-1.6116 0.54169c-5.6393 1.8957-8.9981 2.4308-10.536 1.6786-3.1361-1.5343-8.0047-9.7476-10.742-18.122-0.9923-3.0355-0.954-4.1038 0.1879-5.2457 3.0901-3.09 21.259-7.1462 32.971-7.3605 14.32-0.26193 20.122 2.1129 21.551 8.8223 0.1584 0.74355 0.2157 1.8113 0.2582 4.809l0.054 3.8532-0.5468 0.34054c-3.3974 2.115-5.4942 1.0572-0.1217 9.7208l0.6382 0.4715-0.055 4.3064c-0.03 2.3685-0.1102 9.8333-0.178 16.588-0.1087 10.818-0.1925 17.179-0.5516 41.832-0.071 4.9011-0.059 5.6946 0.087 5.6089 0.6369-0.37341 4.9285-3.1536 6.9972-4.5329l2.4922-1.6616 1.1202 0.0729c9.3308-2.3046 5.7932-1.7348 6.3664-4.6484l0.1364-0.69332 1.1618-0.82208c14.155-10.016 32.005-24.299 47.736-38.196 2.6223-2.3166 2.6243-2.3181 3.1957-2.3181 2.6183 0 3.0392-0.51208 4.2952-2.9232l1.4374-2.7596 2.171-2.004c12.242-11.3 23.568-22.529 33.596-33.307 3.4163-3.672 4.113-4.2449 6.7418-5.5442 2.8086-1.3881 3.8495-1.0734 3.0309 0.91657-1.003 2.4384-6.4513 10.918-10.769 16.76l-1.1399 1.5424 0.3099 0.3239c2.3944 2.5032 0.5879 7.121-6.8396 17.483-4.4656 6.2298-12.437 16.256-12.925 16.256-0.1179 0-0.6675 0.21922-1.2213 0.48692-2.0025 0.96843-2.6282 1.1037-3.0302 3.2662-0.1513 0.81449-1.1435 2.7902-2.6262 4.476-6.8176 7.7519-13.716 15.093-24.178 25.732l-1.6038 1.6308 0.8527 2.8244c1.1949 3.9575 2.6506 8.5126 4.2561 13.318l1.3738 4.1117-0.2262 0.34356c-0.3953 0.60038-0.069 6.0618-0.2114 7.1306-0.501 3.7651 0.9921 4.0557 4.4382 5.3816 0.7664 0.2948 0.6813 0.1372 2.1079 3.9063 4.8463 12.804 10.555 26.156 16.707 39.074l1.2616 2.6491 0.068 1.2041c0.1912 3.3605 2.0244 6.7229 4.7952 8.7949 0.1912 0.14287 0.9216 1.3754 1.8525 3.1259 9.7952 18.417 19.896 33.464 29.589 44.081l1.3285 1.4549 14.162-0.054c9.4082-0.0378 14.939-8e-3 16.477 0.0775 7.1034 0.40327 8.4394 2.149 3.9465 5.1568-3.8007 2.5444-13.676 7.6187-20.711 10.642l-2.1674 0.9315-0.5436-0.50842c-3.3571-3.1396-2.9846-0.96136-6.403 2.0271l-2.655 2.3211-5.1933 2.0845c-2.8564 1.1465-6.7919 2.7586-8.7456 3.5825-4.7259 1.993-6.7471 2.3821-10.783 2.0758-4.4606-0.33864-7.0997-1.4235-9.2215-3.7909-0.3553-0.39644-1.2625-1.3989-2.016-2.2276-3.2847-3.6126-4.8576-6.408-5.6581-10.056-1.2556-5.7222-0.1502-10.409 2.7767-11.773 1.3054-0.60824 1.2892-0.60752 10.068-0.45173 4.4832 0.0797 9.1518 0.12624 10.375 0.10394l2.2235-0.0408-1.1662-0.6957c-1.0598-0.63228-1.2175-0.77503-1.7286-1.5654-1.3741-2.1245-3.5432-3.8256-6.099-4.7828-1.3926-0.52157-10.671-9.8139-17.554-17.58-20.988-23.682-38.424-49.704-48.126-71.826l-0.8977-2.047-0.021-1.746c-0.031-2.5197-0.5859-3.8983-2.2189-5.5075-0.6448-0.6353-0.8085-0.88622-1.0611-1.6256-0.3288-0.9626-1.2771-4.0685-1.4906-4.882l-0.1353-0.51579-1.0479 0.92345c-8.8382 7.7887-20.059 16.945-21.241 17.332-2.3389 0.76671-4.7003 2.5288-6.0995 4.5515-0.4061 0.58704-1.6536 1.6853-2.3982 2.1112-0.1201 0.0688-0.2054 2.8455-0.3943 12.845-0.1326 7.0165-0.3698 19.432-0.527 27.59l-0.2859 14.833-1.6871 5.5891c-1.329 4.4026-2.0535 3.5647 0.9074 7.0341l0.5352 0.62709-0.1779 9.4273c-0.098 5.185-0.1693 9.4372-0.1587 9.4494 0.011 0.0113 2.6191 0.32315 5.7968 0.69086 11.011 1.2744 16.704 1.7305 24.201 1.9388 4.5125 0.12548 6.6802 0.67737 7.8006 1.9862 0.869 1.0152 0.5445 2.0716-0.8344 3.0295-0.429 0.29782-2.1298 0.10394-2.1298 0.10394s-0.8563 1.308-1.7057 1.557c-1.9772 0.57967-3.6972 1.1716-7.4359 2.6295-0.8179 0.31899-2.2734 0.13871-3.3085 0.54924-1.2772 0.50691-3.8856 2.3086-3.8856 2.3086l-10.628 1.3845-7.5918 4.5121s-10.967 4.6204-14.445 5.4822c-8.0127 1.9853-15.696 2.8918-21.362 2.5207zm-649.66-2.5167-3.4317-1.2942-2.7266-2.5784-2.7265-2.5784-1.8112-3.5032-1.8111-3.5032-0.48952-4.1242c-0.2691-2.2683-0.48953-4.2422-0.48953-4.3864 0-0.21166 1.6927-2.2833 4.2683-5.2238 0.0151-0.0151 2.5957-0.33146 5.7359-0.70008l5.7096-0.67004 3.213-3.1986 0.4699-8.4065c0.25852-4.6236 0.48382-8.4186 0.50075-8.4334 0.0151-0.0151 1.2228-0.22564 2.6798-0.46847 1.457-0.24265 2.6836-0.47944 2.7258-0.52566 0.0722-0.0794 0.58552-4.1998 0.58552-4.7023 0-0.16895-0.41208-0.49467-1.475-1.1657-2.617-1.652-3.8679-2.6618-4.7082-3.8006l-0.31975-0.43317 0.0302-26.357 0.0302-26.357 1.2041-0.33789c0.66229-0.18596 2.2498-0.57298 3.5278-0.86034 1.278-0.28724 2.3405-0.5424 2.3611-0.56685 0.0189-0.0227 0.29027-0.71758 0.59917-1.5403l0.56164-1.4957-1.9595-2.5877c-1.0777-1.4232-2.9931-3.9382-4.2563-5.5888l-2.2969-3.0011 0.0427-0.62184c0.6265-9.1474 1.4496-31.359 1.5057-40.632l0.034-5.8134-4.4785-4.7491-10.212-3.8004-3.9336-3.6651-1.9631-4.5756-1.963-4.5756-0.14362-5.3852-0.14362-5.3853 2.1316-2.2609 2.1316-2.2609 15.925-5.8176 28.538-5.3082 33.234 0.1308 8.5708 0.82896 8.5708 0.82901 4.253 1.5517c14.484 5.2846 20.498 8.6857 29.23 16.531 1.2179 1.0942 1.4274 1.3675 7.0051 9.1354l5.7497 8.0074 4.4204 9.2115 4.4204 9.2115 1.5384 5.9604 1.5384 5.9604 0.0874 6.8696 0.0875 6.8696-2.3364 9.9818-7.229 14.811-3.0127 3.4919c-9.5142 11.028-13.304 14.434-26.969 24.238l-4.0524 2.9074-6.9653 3.3591c-13.232 6.3815-21.172 9.8612-30.686 13.45-6.3627 2.3996-8.7868 3.1351-17.82 5.4067l-6.501 1.6348-1.4763 1.4727-1.4762 1.4727v23.727l2.1373 2.1275 2.1373 2.1275 3.492 0.55033c1.9206 0.30274 3.6003 0.57525 3.7327 0.60556 0.13259 0.0302 0.75146 0.68062 1.3756 1.4451l1.1347 1.3898 9.5308 0.016 7.7063 2.7226 0.49444-0.27931c0.77725-0.43937 2.8636-0.66636 9.8008-1.0664 7.3982-0.42659 9.4739-0.48657 16.797-0.4854 8.639 1e-3 9.2579 0.045 11.233 0.79393 0.2631 0.0998 0.22693 0.16214-0.81873 1.4141l-1.094 1.3098-1.1079 0.0639c-1.8391 0.10621-3.0508 0.57661-10.921 4.2411-7.8519 3.6558-10.827 4.8402-16.195 6.4462-3.8372 1.148-7.0141 2.2471-9.192 3.18l-1.8469 0.79113h-6.8469l-1.5329 1.0448c-3.8214 2.6047-8.4905 4.1314-20.137 6.5842-8.5824 1.8075-6.5259 1.5794-18.604 2.0644-5.8279 0.23395-10.732 0.41975-10.897 0.41261-0.16554-8e-3 -1.8453-0.59531-3.7327-1.3071zm49.915-96.513 10.518-2.2214 16.209-6.414 3.793 0.56126c2.0861 0.30879 3.882 0.57048 3.9908 0.58178 0.19438 0.0189 3.1172-4.2504 3.1105-4.5449-2e-3 -0.0718-0.24235-1.0775-0.5349-2.2348-0.29258-1.1572-0.52151-2.1096-0.50876-2.1164 0.0333-0.0189 2.7212-2.4388 3.1754-2.8603l0.38279-0.35528 1.948 1.038c1.0714 0.57094 2.0099 1.0019 2.0856 0.95781 0.61976-0.36132 2.7372-2.2734 2.696-2.4346-0.0268-0.10583-0.25837-1.2556-0.51395-2.5545l-0.46465-2.3617 2.8319-3.2374c8.0518-9.2048 11.688-14.624 16.054-23.928l1.6295-3.4721v-16.696l-4.8343-10.316-7.5122-8.1531-10.712-4.808-14.027-2.0823-5.8103 0.69993c-7.6518 0.92175-12.125 1.5657-13.793 1.9856l-1.36 0.34242-3.1352-2.755-3.1352-2.755-3.9821 0.068-0.64282 1.2643c-0.87027 1.7117-1.1344 2.8613-1.1379 4.9518l-2e-3 1.6106-2.0092 1.3245c-3.5643 2.3496-5.3284 3.9328-7.2152 6.4749l-1.1415 1.5381-0.77365 14.838-0.77363 14.838-1e-3 25.89-1e-3 25.89 0.8234 1.0222c1.1428 1.4186 2.8674 2.5136 4.1547 2.638 0.0556 4e-3 4.8346-0.98982 10.62-2.2116zm107.82 94.735c-4.197-0.43767-6.0011-0.81407-12.12-2.5287l-3.2695-0.9162-7.7549-7.7577-8.0292-20.985-0.76536-24.744 1.0917-6.745 1.0917-6.745 1.337-3.9008c3.1829-9.2865 5.8261-14.755 10.451-21.623 3.9811-5.9117 7.5816-10.266 13.42-16.231l2.9224-2.9856 15.256-7.3219 9.3762-1.1091 4.8002 2.6254 4.8002 2.6255 9.5976 9.2439 2.3007 4.5895 2.3007 4.5895 1.0425 4.9369 1.0424 4.9369 4e-3 22.758-0.98416 3.568-0.98417 3.568-3.9988 2.5964-4.1542 0.69558c-9.7003 1.6242-38.081 8.6089-48.463 11.927l-2.3896 0.76373-3.2208 6.5942 0.92589 2.4224c1.6464 4.3074 2.8702 6.8109 5.1248 10.483l1.3376 2.1786 2.8425 1.8002c2.2063 1.3974 2.9503 1.8099 3.3241 1.8434 0.26491 0.0227 2.8289-0.12662 5.6978-0.33411l5.2162-0.3772 3.1182-1.3753c6.743-2.974 12.127-5.8945 24.225-13.14 3.3593-2.0119 6.1884-3.689 6.2869-3.7268 0.12662-0.0484 2.2239 0.6455 2.5548 0.84548 9e-3 8e-3 -0.0573 0.47168-0.14975 1.0346-0.66974 4.0787-1.2795 6.0228-3.3993 10.837l-1.0869 2.4684-4.6629 0.068-2.9358 2.9452 0.11426 2.5287c0.12801 2.8306 0.13761 6.3582 0.0181 6.778-0.0824 0.29064 0.22416 0.13833-11.433 5.672l-4.6112 2.189-3.3359 0.70896c-8.0749 1.7161-10.769 2.0518-13.872 1.7282zm-10.744-63.922c0.97963-0.40928 6.8488-1.7875 25.314-5.9444l6.442-1.4502 7.5626-3.3162 2.0052-3.7327-2e-3 -9.6931-2e-3 -9.6932-2.9693-7.3451-4.3291-1.1086-8.335 4.0331-3.6486 3.4113c-12.386 11.581-14.247 14.038-22.116 29.208l-1.948 3.7553 0.63514 1.03c0.68268 1.1071 0.71597 1.1274 1.3902 0.84559zm248.93 62.695-2.0954-0.43642-1.8474-2.348-1.8473-2.348-1e-3 -1.5912-1e-3 -1.5912-1.2857-1.0768c-1.0565-0.8849-1.3301-1.0594-1.5352-0.97901-0.1373 0.0537-1.6584 0.69139-3.3803 1.4168-5.3758 2.2649-9.1014 3.6466-16.675 6.184l-4.9948 1.6735-16.718 1.0498-9.7667-3.2567-3.527-3.1876c-1.939-1.7532-3.5261-3.2097-3.5261-3.2368 0-0.0265-0.62313-2.1444-1.3847-4.7051l-1.3847-4.6559v-8.4734l2.2498-6.1847 2.2498-6.1847 6.853-9.9426 10.216-7.3646 21.96-10.703 8.0967-2.025 8.0968-2.025 1.8372-1.4794c1.0105-0.81365 1.8788-1.5149 1.9297-1.5584 0.051-0.0435-0.3633-4.094-0.9204-9.0011l-1.0128-8.9222-1.6412-3.3444c-0.9026-1.8394-1.6633-3.3666-1.6905-3.3938-0.062-0.0624-11.849-0.49852-13.552-0.5015l-1.2643-2e-3 -14.57 7.088-5.4787 4.0908c-9.2436 6.902-9.1434 6.8127-13.039 11.613l-1.936 2.3853-1.0771-1.077-1.0771-1.0771 1.4586-3.6711c1.7677-4.4491 2.6249-6.3952 4.2339-9.612 1.2665-2.5321 1.7526-3.4066 3.8424-6.9134l1.2199-2.047 3.5787-2.9974c8.722-7.3053 12.484-9.6158 20.226-12.423l2.7999-1.0153h13.261l9.6316 4.395 6.7535 5.917 2.2225 4.7439 2.2225 4.7439 1.0219 4.8204 1.022 4.8204 0.4695 6.6828c0.974 13.866 1.2136 19.015 1.3083 28.116l0.076 7.3451 0.5037 0.0378c0.7431 0.054 1.3925-0.32542 1.9222-1.1231l0.4379-0.65949h1.8493c1.0964 0 1.8493 0.0469 1.8493 0.11528 0 0.0635-0.1634 0.90122-0.3632 1.862-0.6776 3.2583-1.796 6.1456-5.108 13.188l-1.1577 2.4616 0.033 1.6927 0.033 1.6927 0.6622-8e-3c0.9615-8e-3 2.1042-0.50162 8.7901-3.7872 8.7212-4.2858 11.136-5.2974 12.643-5.2974h0.8435l-1e-4 0.39134c0 0.82201-1.583 3.5535-5.2002 8.9744l-2.2973 3.4428-0.7135 4.4963-0.7136 4.4963-2.9638 4.5089-9.672 5.4841-3.0972 0.90716c-4.1285 1.2092-6.7106 1.8602-7.3052 1.8418-0.2684-8e-3 -1.431-0.21166-2.5834-0.45154zm-32.733-20.848 6.925-1.3263 2.8736-1.3064c6.0038-2.7295 8.8939-4.335 13.107-7.2811l1.3229-0.92511 3.6758-5.9502v-7.5903l-4.5131-4.5177h-3.5191l-1.3599-2.047c-0.748-1.1258-1.3964-2.047-1.441-2.047-0.045 0-0.8587 0.69464-1.8091 1.5437l-1.728 1.5437-12.385 3.822-1.8845 1.6737c-3.311 2.9407-6.6608 5.5647-11.143 8.7289l-2.3954 1.6909-1.6607 2.4788c-1.9112 2.8528-3.1754 5.2887-3.7014 7.1324l-0.34825 1.2205 1.4576 2.2398 1.4576 2.2397 10.144 4e-3zm568.93 20.848-2.0954-0.43642-1.8474-2.348-1.8473-2.348v-3.1825l-1.2857-1.0768c-1.0565-0.8849-1.3301-1.0594-1.5352-0.97901-0.1372 0.0537-1.6584 0.69139-3.3804 1.4168-5.3757 2.2649-9.1014 3.6466-16.675 6.184l-4.9949 1.6735-16.718 1.0498-9.7667-3.2567-3.527-3.1876c-1.939-1.7532-3.5261-3.2097-3.5261-3.2368 0-0.0265-0.6232-2.1444-1.3848-4.7051l-1.3847-4.6559v-8.4734l4.4996-12.369 6.853-9.9426 10.216-7.3646 21.96-10.703 16.194-4.05 1.8372-1.4794c1.0104-0.81365 1.8788-1.5149 1.9297-1.5584 0.051-0.0435-0.3633-4.094-0.9204-9.0011l-1.0129-8.9222-1.6411-3.3444c-0.9026-1.8394-1.6634-3.3666-1.6905-3.3938-0.062-0.0624-11.849-0.49852-13.552-0.5015l-1.2643-2e-3 -14.57 7.088-5.4788 4.0908c-9.2436 6.902-9.1434 6.8127-13.039 11.613l-1.9359 2.3853-1.0771-1.077-1.0771-1.0771 1.4586-3.6711c1.7677-4.4491 2.625-6.3952 4.2339-9.612 1.2666-2.5321 1.7526-3.4066 3.8424-6.9134l1.2199-2.047 3.5787-2.9974c8.722-7.3053 12.484-9.6158 20.226-12.423l2.7999-1.0153h13.261l9.6316 4.395 6.7536 5.917 2.2225 4.7439 2.2225 4.7439 1.0219 4.8204 1.022 4.8204 0.4694 6.6828c0.9741 13.866 1.2137 19.015 1.3084 28.116l0.076 7.3451 0.5037 0.0378c0.7431 0.054 1.3925-0.32542 1.9222-1.1231l0.4379-0.65949h1.8493c1.0964 0 1.8493 0.0469 1.8493 0.11528 0 0.0635-0.1636 0.90122-0.3632 1.862-0.6775 3.2583-1.7959 6.1456-5.108 13.188l-1.1577 2.4616 0.034 1.6927 0.034 1.6927 0.6622-8e-3c0.9615-8e-3 2.1042-0.50162 8.7901-3.7872 8.7212-4.2858 11.136-5.2974 12.643-5.2974h0.8435l-1e-4 0.39134c0 0.82201-1.5829 3.5535-5.2002 8.9744l-2.2973 3.4428-0.7135 4.4963-0.7136 4.4963-2.9638 4.5089-9.6719 5.4841-3.0973 0.90716c-4.1285 1.2092-6.7106 1.8602-7.3052 1.8418-0.2683-8e-3 -1.431-0.21166-2.5835-0.45154zm-32.732-20.848 6.925-1.3263 2.8736-1.3064c6.0038-2.7295 8.8939-4.335 13.107-7.2811l1.3229-0.92511 1.838-2.9751 1.8379-2.9751v-7.5903l-4.5131-4.5177h-3.5191l-1.3599-2.047c-0.748-1.1258-1.3964-2.047-1.441-2.047-0.045 0-0.8586 0.69464-1.8091 1.5437l-1.728 1.5437-12.385 3.822-1.8845 1.6737c-3.3109 2.9407-6.6608 5.5647-11.143 8.7289l-2.3954 1.6909-1.6607 2.4788c-1.9112 2.8528-3.1753 5.2887-3.7013 7.1324l-0.3481 1.2205 1.4575 2.2398 1.4576 2.2397 10.144 4e-3zm303.54 20.848-2.0954-0.43642-1.8473-2.348-1.8474-2.348v-3.1825l-1.2856-1.0768c-1.0565-0.8849-1.3302-1.0594-1.5353-0.97901-0.1372 0.0537-1.6584 0.69139-3.3803 1.4168-5.3758 2.2649-9.1014 3.6466-16.675 6.184l-4.9949 1.6735-16.718 1.0498-9.7667-3.2567-3.5271-3.1876c-1.9398-1.7532-3.5269-3.2097-3.5269-3.2368 0-0.0265-0.6232-2.1444-1.3848-4.7051l-1.3847-4.6559v-8.4734l2.2498-6.1847 2.2499-6.1847 3.4264-4.9713 3.4266-4.9713 5.1079-3.6823 5.1082-3.6823 10.98-5.3513 10.98-5.3513 16.194-4.05 1.8372-1.4794c1.0105-0.81365 1.8789-1.5149 1.9297-1.5584 0.051-0.0435-0.3632-4.094-0.9204-9.0011l-1.0128-8.9222-1.6412-3.3444c-0.9026-1.8394-1.6634-3.3666-1.6905-3.3938-0.062-0.0624-11.849-0.49852-13.552-0.5015l-1.2643-2e-3 -14.57 7.088-5.4788 4.0908c-9.2436 6.902-9.1433 6.8127-13.039 11.613l-1.936 2.3853-1.0771-1.077-1.0771-1.0771 1.4587-3.6711c1.7677-4.4491 2.6249-6.3952 4.2339-9.612 1.2665-2.5321 1.7525-3.4066 3.8424-6.9134l1.2198-2.047 3.5787-2.9974c8.722-7.3053 12.484-9.6158 20.226-12.423l2.7999-1.0153h13.261l9.6316 4.395 6.7535 5.917 2.2224 4.7439 2.2226 4.7439 1.0219 4.8204 1.0221 4.8204 0.4693 6.6828c0.9742 13.866 1.2138 19.015 1.3084 28.116l0.076 7.3451 0.5038 0.0378c0.7431 0.054 1.3924-0.32542 1.9221-1.1231l0.4378-0.65949h1.8494c1.0964 0 1.8493 0.0469 1.8493 0.11528 0 0.0635-0.1637 0.90122-0.3632 1.862-0.6776 3.2583-1.796 6.1456-5.108 13.188l-1.1578 2.4616 0.034 1.6927 0.034 1.6927 0.6622-8e-3c0.9615-8e-3 2.1042-0.50162 8.7901-3.7872 8.7211-4.2858 11.136-5.2974 12.643-5.2974h0.8435v0.39134c0 0.82201-1.583 3.5535-5.2001 8.9744l-2.2973 3.4428-1.4272 8.9926-2.9638 4.5089-9.672 5.4841-3.0972 0.90716c-4.1285 1.2092-6.7106 1.8602-7.3052 1.8418-0.2684-8e-3 -1.431-0.21166-2.5834-0.45154zm-32.732-20.848 6.925-1.3263 2.8736-1.3064c6.0038-2.7295 8.8938-4.335 13.107-7.2811l1.3229-0.92511 1.8379-2.9751 1.838-2.9751v-7.5903l-2.2566-2.2589-2.2565-2.2589h-3.5191l-1.36-2.047c-0.7479-1.1258-1.3964-2.047-1.4409-2.047-0.045 0-0.8587 0.69464-1.8091 1.5437l-1.728 1.5437-12.385 3.822-1.8845 1.6737c-3.311 2.9407-6.6609 5.5647-11.143 8.7289l-2.3953 1.6909-1.6608 2.4788c-1.9112 2.8528-3.1753 5.2887-3.7013 7.1324l-0.3481 1.2205 1.4574 2.2398 1.4576 2.2397 10.144 4e-3zm-108.54 20.7c-4.2592-0.35225-6.6036-1.9561-6.6036-4.5179 0-0.36737 0.079-1.3273 0.1769-2.1328 0.599-4.9648 0.5739-11.638-0.065-17.419-0.2596-2.3471-0.6662-5.2913-0.741-5.3661-0.023-0.0227-0.6106 0.7762-1.3027 1.779-2.7959 4.0513-6.601 8.9054-10.622 13.551l-1.0683 1.2342h-0.9296c-1.7625 0-1.5708-0.43589-2.778 0.77126-1.0372 1.0372-3.2594 3.5158-3.2594 4.6842 0 0.23433-0.1576 0.52664-0.4834 0.89681-0.4153 0.47176-1.0442 1.591-1.237 2.2013-0.1822 0.57657-6.6037 2.4954-10.452 3.1233-7.8659 1.2833-14.25 0.65809-16.33-1.5992-0.5989-0.6497-0.7059-1.0127-0.8769-2.9734-0.7577-8.689-2.8792-21.89-4.9776-30.975-0.3841-1.6631-0.4003-1.8171-0.2559-2.4382 0.2397-1.0305 0.1569-6.0878-0.1111-6.8003-0.2823-0.75024-0.7548-1.5281-1.2779-2.1035-0.3307-0.36396-0.4969-0.70057-0.6482-1.3134-0.2627-1.064-0.8743-2.2611-1.5659-3.065-0.4016-0.46685-0.6279-0.88683-0.8432-1.5654-2.3641-7.4517-5.384-15.037-8.8466-22.22l-1.0932-2.2677 0.072-1.1038c0.1704-2.6174-1.0518-4.7949-3.3013-5.882-0.8376-0.40479-0.8991-0.46417-1.4862-1.4344-4.8594-8.0307-9.8653-11.686-17.207-12.565-2.0018-0.23962-4.1284-1.0669-4.1284-1.0669l-0.319-1.7465s5.9733-3.5822 11.01-5.2658c9.6112-3.2129 19.166-4.2466 24.291-2.6278 2.3265 0.73493 4.2177 1.8778 6.0151 3.6349l1.1923 1.1655 0.237 0.95414c0.1304 0.52479 0.3719 1.1954 0.5365 1.4902 0.2465 0.44107 0.2997 0.69963 0.2997 1.4589 0 2.3389 1.2459 4.4151 3.2456 5.409 0.7769 0.38611 0.7772 0.38645 1.1784 1.377 5.5578 13.722 9.9963 29.774 12.609 45.603 0.7892 4.7807-0.2018 8.3243-0.7114 9.1538-1.4694 2.3922-0.1996 1.3293 1.7373 3.4112l0.689 0.74049 0.1455 1.9266c0.08 1.0596 0.1776 3.2695 0.2169 4.9108 0.039 1.6413 0.1077 3.0068 0.1523 3.0344 0.087 0.0537 1.7046-1.7248 4.0506-4.4533 6.9991-8.1404 11.707-14.867 15.703-22.437 1.2051-2.2828 3.3685-6.8554 3.3685-7.1196 0-0.0612-0.1886-0.5255-0.4192-1.0315-0.3859-0.84685-0.4059-0.94583-0.2514-1.2451 0.6711-1.2976 0.149-5.4299-0.9299-4.462l-1.0525 0.94401-1.0077-2.0118c-0.5542-1.1064-1.4995-2.9207-2.1006-4.0317-0.8256-1.5261-1.1248-2.2032-1.2237-2.7695-0.072-0.41223-0.2211-1.0204-0.3311-1.3515-0.138-0.41537-0.1905-0.91948-0.1686-1.6256 0.074-2.429-1.1646-4.4964-3.3524-5.592-0.4967-0.24869-1.2366-0.68402-1.6442-0.96733-0.4076-0.28346-1.0625-0.62366-1.4553-0.75628-0.4503-0.15194-1.1169-0.54698-1.8043-1.0688-2.304-1.7492-5.4375-3.1105-9.5126-4.1325-2.9622-0.74287-4.127-1.7685-4.127-1.7685s6.8664-4.5434 12.904-5.5756c6.3629-1.0878 15.218-0.90157 20.51 0.43139 4.4825 1.129 6.5714 2.5691 8.7323 6.0202l0.8397 1.3409-0.1081 4.9252c-0.054 2.4758 0.195 0.49316 2.7482 0.83188l0.6427 0.085 0.777 1.6381c2.2055 4.6498 4.006 9.1856 5.4526 13.737l0.6249 1.9658-0.2718 0.79457c-0.3723 1.0876-1.6468 1.723-1.3647 2.8095 0.3281 1.2637 2.1252 3.7214 3.1617 4.8218l0.9454 1.0037 0.5578 2.883c1.8052 9.3299 2.6505 17.324 3.013 28.494l0.138 4.2494 1.0564-1.3238c0.5811-0.72809 1.5212-1.9896 2.0892-2.8034 0.9952-1.4259 1.0641-1.4954 1.8937-1.9127 2.3477-1.1811 3.9313-3.7772 3.9313-6.4448v-1.0123l1.4826-2.9439c1.8705-3.714 3.1445-6.58 4.6543-10.47 3.2139-8.2803 5.5326-17.202 6.4966-24.998l0.2291-1.852 0.6701-0.61247c1.0804-0.9874 1.7831 0.4899 1.7831-1.101 0-1.4756-0.5951-4.612-1.4576-5.5478-0.4691-0.50895-0.4925-0.57063-0.4926-1.3034 0-9.5608-6.7996-16.835-14.457-15.469-2.2164 0.39541-3.1057 1.4992-3.5492 4.4048-0.6485 4.2492 0.3084 7.3884 2.6021 8.5346 2.3981 1.1598 7.6545 2.1535 7.6545 2.1535-1.8057 1.6644-4.0876 2.3803-6.6228 2.0776-3.2299-0.38563-6.967-1.9706-8.7002-3.6898-3.1601-3.1347-3.6288-11.369-0.9413-16.538 3.3517-6.4464 14.773-10.428 23.513-8.1964 9.5462 2.4373 18.292 10.954 20.904 20.355 0.7161 2.5779 0.9239 6.3866 0.6798 12.463-0.5135 12.783-2.4546 23.881-6.0444 34.558-1.6285 4.8438-1.8347 5.3188-2.6127 6.0188-0.8198 0.7375-1.4912 1.7547-1.8298 2.7719 0 0-0.8945 0.4611-1.0139 0.61372-0.743 0.94941-0.792 3.1491-0.792 4.425 0 0.87882-0.2434 1.4217-1.8835 4.1991-3.6581 6.1951-8.5607 12.333-13.446 16.834l-1.8287 1.6848-3.1862-0.19956c-2.2609-0.14135-1.4246 1.0169-1.7514 3.2242l-0.083 0.55846-0.9216 0.42581c-2.4049 1.1112-4.5443 1.8101-6.9642 2.2752-1.3835 0.2657-11.842 0.41374-14.386 0.20333zm-878.2-152.18c-1.3642-0.24-2.7191-0.63522-3.1047-0.90531-0.14309-0.10016-0.35047-0.18217-0.46087-0.18217-0.11036 0-0.31627-0.0949-0.45758-0.21052-0.25546-0.20939-0.25671-0.23773-0.22416-4.9959l0.0329-4.7852 0.54186 0.36019c1.8976 1.2613 5.3742 1.9601 6.6114 1.3288 0.48087-0.24529 1.3668-1.2155 1.4895-1.6312 0.0392-0.13266 0.15088-0.45755 0.24828-0.7225 0.49664-1.3497 0.65717-4.5856 0.78622-15.847 0.0575-5.0091 0.11633-6.8621 0.22208-6.9895 0.0792-0.0956 0.33782-0.55015 0.57479-1.0106 0.23702-0.4605 0.61962-1.1353 0.85029-1.4995 1.5507-2.4487 1.0911-4.7858-0.46042-7.2275-0.23146-0.36434-0.13965-2.7005-0.35716-3.1347l-0.39532-0.7895 0.0847-7.0372c0.0845-7.0009 0.0836-7.0384-0.16233-7.248-0.13602-0.11603-0.31502-0.21052-0.39793-0.21052-0.27919 0-1.4876-1.2595-1.733-1.8062-1.1918-2.6555-0.21407-5.5405 2.1513-6.3479 2.4053-0.8211 7.9826-0.52252 10.369 0.55513 1.2358 0.55794 1.8798 1.5537 1.7499 2.7057-0.23448 2.0794-1.1225 3.6641-2.5545 4.5587l-0.61719 0.38555-0.0747 3.3159c-0.0795 3.5376-0.3778 23.525-0.54761 36.698l-0.1028 7.9752-0.30932 0.46742c-0.17011 0.257-0.56338 0.67793-0.87394 0.93524-2.6975 2.2352-2.4562 3.3653-1.3919 5.1327 0.69145 1.1483 0.3227 3.0132 0.0682 3.7532-0.23032 0.66995-1.5896 2.1584-2.6549 2.9071-2.0978 1.4743-5.6525 2.0744-8.901 1.5026zm85.782-22.489c0.67105-0.25625 1.9381-1.6138 1.9381-2.0767 0-0.10734 0.0565-0.25134 0.12548-0.32051 0.29227-0.29215 0.73783-2.5772 0.91241-4.6789 0.15303-1.8424 0.16112-3.1966 0.0539-9.0308-0.0694-3.7749-0.14985-8.191-0.1788-9.8135-0.0291-1.6226-0.11169-3.2516-0.18377-3.6201-0.0721-0.3685-0.1816-1.0187-0.24332-1.445-0.41775-2.8841-1.6529-5.0932-3.4175-6.1122-1.8294-1.0564-4.7687-0.91359-6.4528 0.3137-0.9516 0.69339-2.5363 2.5472-2.5363 2.967 0 0.034-0.1276 0.34923-0.28358 0.69876-0.71926 1.6117-0.80011 2.0696-0.80011 4.5321 0 2.7375-0.0799 3.0432-0.9614 3.6765-1.9121 1.3737-2.1729 3.7153-0.6036 5.4178 0.27692 0.30047 0.6928 0.8598 0.92421 1.2432l0.42074 0.69698-0.0827 4.9971c-0.13364 8.0739-0.15904 8.2902-1.1286 9.6088-1.1716 1.5935-4.8654 1.8294-6.3385 0.40472-1.2548-1.2136-1.2864-1.711-0.91443-14.409 0.13966-4.7683 0.33683-11.948 0.43814-15.955 0.10122-4.0067 0.20171-7.8122 0.22326-8.4566 0.0449-1.3483 0.16327-1.2251-1.3581-1.4115-0.55686-0.068-1.0312-0.14287-1.0542-0.16592-0.0231-0.0227-0.055-1.118-0.0712-2.4335l-0.0295-2.3919 0.90309-0.22262c1.5292-0.37719 5.4294-0.34204 6.6226 0.0593 2.4005 0.80757 2.9823 1.5972 3.0983 4.2045l0.0712 1.6004 0.37194-0.47474c2.3259-2.9685 4.4979-4.0946 7.8977-4.0946 5.4803 0 9.5214 2.2683 11.798 6.6226 0.95125 1.819 1.3639 3.1444 1.8934 6.0808l0.31484 1.746-0.0189 10.235c-0.0106 5.6293-0.0524 10.731-0.0931 11.337l-0.074 1.1022-0.58411 0.37848c-1.5118 0.97962-2.5072 2.9176-2.5262 4.9186-6e-3 0.68293-9e-3 0.68826-0.5685 1.0477-0.69659 0.44776-1.3161 1.2486-1.5012 1.9407-0.11392 0.42592-0.20988 0.54716-0.50718 0.6409-0.69229 0.21807-2.2939 0.50573-3.106 0.55748-1.9217 0.12245-2.5484 0.14437-2.3897 0.0839zm579.49-0.57309c-0.6623-0.0805-1.5022-0.22904-1.8664-0.3307-0.3643-0.10167-0.8427-0.21771-1.0632-0.25739-0.2204-0.0397-0.5727-0.1474-0.7827-0.23924-0.2097-0.0918-0.8694-0.37342-1.4654-0.62571-0.596-0.25247-1.1352-0.50294-1.1981-0.55676-0.063-0.0537-0.1932-0.0979-0.2895-0.0979-0.302 0-1.8127-1.1078-2.403-1.762-1.0906-1.2087-1.397-1.7717-1.8829-3.4592-0.47-1.6328-0.407-5.1461 0.1198-6.6803 0.038-0.10545 0.3591 0.12019 0.9281 0.64796 0.4799 0.44515 1.325 1.168 1.878 1.6063 0.553 0.43835 1.149 0.91884 1.3245 1.0678 0.1758 0.14892 0.3734 0.27213 0.4395 0.27364 0.066 2e-3 0.2559 0.10885 0.4215 0.23849 0.1655 0.12964 0.3822 0.23698 0.4816 0.23887 0.099 2e-3 0.3281 0.0805 0.5082 0.17423 0.3935 0.20523 2.0854 0.6669 2.9235 0.79767 0.3311 0.0518 1.1122 0.18406 1.7357 0.29405 1.646 0.29102 4.826 0.20787 5.8806-0.15345 1.4999-0.51394 2.3851-1.239 2.9056-2.3803 0.1497-0.32806 0.3198-0.68636 0.3776-0.79578 0.2222-0.41964 0.7201-2.3406 0.7201-2.7794 0-1.2074-1.4285-2.8718-3.3113-3.8581-0.94-0.49244-3.3186-1.2896-3.8565-1.2926-0.1304-1e-3 -0.5076-0.0835-0.8378-0.18331-0.3303-0.10016-0.872-0.22904-1.2041-0.28649-0.7552-0.13039-2.189-0.62343-3.7363-1.2848-0.1996-0.0854-0.5122-0.21165-0.6945-0.2812-0.1822-0.0695-0.3789-0.24907-0.4369-0.39915-0.058-0.15005-0.2661-0.47437-0.463-0.72042-0.2358-0.2948-0.4082-0.70431-0.5061-1.202-0.3277-1.6647-1.2037-3.3287-2.369-4.4987-0.9197-0.92345-1.0909-1.2851-1.165-2.4615-0.082-1.3064 0.11-3.4475 0.4-4.4552 0.1239-0.43045 0.2607-0.91812 0.3038-1.0837 0.043-0.16554 0.2635-0.69593 0.4887-1.1786 0.2253-0.48268 0.4098-0.89601 0.4098-0.91858 0-0.0227 0.1765-0.33222 0.3921-0.68779 3.1573-5.2078 7.7748-8.2209 12.552-8.1907 1.2199 8e-3 1.2242 8e-3 3.2511 0.76672 0.5364 0.20069 3.5358 1.7462 4.1122 2.1191 3.0633 1.9815 3.3645 2.4169 3.5361 5.1104 0.064 1.0096 0.1697 2.242 0.2343 2.7386 0.1826 1.4052 0.1882 1.3756-0.2162 1.1365-0.1878-0.11074-0.5264-0.36321-0.7526-0.56096-0.2264-0.19767-0.6551-0.50135-0.9531-0.6748-0.2978-0.17348-0.7108-0.42882-0.9173-0.56749-0.4582-0.30766-1.9369-1.034-2.7553-1.3533-0.331-0.12926-0.9104-0.35452-1.2873-0.50071-1.4389-0.55832-2.9522-0.63145-5.5159-0.26684-3.0981 0.44077-4.9309 2.2873-5.7922 5.8354-0.3954 1.6286-0.1863 2.4754 0.9419 3.8157 0.3828 0.45479 0.9394 1.2233 1.2368 1.7077 1.4482 2.3593 4.1593 4.3163 6.9978 5.0514 0.7867 0.20371 1.4376 0.26948 2.9373 0.29745 2.8163 0.0525 3.2626 0.12207 3.942 0.61508 1.1213 0.81346 1.9113 1.9051 2.6826 3.7068 0.613 1.432 0.7938 4.3758 0.4215 6.8635-0.4533 3.0294-1.5185 5.0671-3.8122 7.2926-1.0267 0.99617-2.9825 2.5209-3.2336 2.5209-0.046 0-0.2537 0.1217-0.4616 0.27099-2.2371 1.6031-6.2521 2.3223-10.255 1.8372zm-613.02-0.24907c-1.3719-0.73205-2.1861-2.0029-2.5553-3.9885l-0.0936-0.50411-0.48167 0.3515c-0.2649 0.19313-0.5629 0.38861-0.66225 0.43404-0.0994 0.0454-0.39764 0.22941-0.66288 0.40902-0.26521 0.17953-0.67161 0.43464-0.90308 0.56681-0.23146 0.13229-0.82723 0.47328-1.3239 0.75791-2.8929 1.6578-4.0726 2.0309-6.442 2.0365-8.3814 0.0189-13.701-3.0071-14.301-8.1392-0.3086-2.637 0.50621-8.6761 1.4194-10.52 0.082-0.16554 0.22163-0.45498 0.31033-0.64312 0.23399-0.49629 0.79023-1.0402 1.614-1.5784 0.39736-0.25965 0.74956-0.50827 0.78269-0.55272 0.0779-0.10469 3.3688-2.2495 4.1542-2.7075 2.0734-1.2093 3.1146-1.6673 5.4787-2.4103 3.6555-1.1488 4.8474-1.479 5.6803-1.5738l0.68318-0.0779 0.0664-0.55646c0.13186-1.1045 0.30228-3.2352 0.37451-4.6817l0.0737-1.4762-0.97806-1.9555c-0.90778-1.8151-1.0307-1.9988-1.7117-2.5576-0.40352-0.33108-0.98378-0.85164-1.2895-1.1566-1.1953-1.1926-2.601-1.3917-3.9496-0.55922-0.40235 0.24832-0.78675 0.45154-0.85421 0.45154-0.0675 0-0.41911 0.271-0.78141 0.60208-0.36231 0.33109-0.73562 0.60204-0.82954 0.60204-0.49621 0-3.2938 1.2059-4.6199 1.9914-1.1943 0.70745-2.3357 2.2148-2.3388 3.0888-2e-3 0.70061-0.21226 0.39557-0.41252-0.6003-0.67702-3.365-0.0378-5.9542 1.971-7.9832 1.4158-1.43 5.5336-3.532 8.1937-4.1825 3.5526-0.86876 7.8065-0.64713 9.5538 0.49769 0.17129 0.11225 0.36313 0.2041 0.4263 0.2041 0.10393 0 0.85152 0.61417 1.3298 1.0925 0.69711 0.6971 1.6303 1.9188 2.3618 3.0922 0.2792 0.4478 0.3027 0.55971 0.18732 0.89099-0.0726 0.20825-0.13395 0.68228-0.13648 1.0532-2e-3 0.37077-0.0829 0.9995-0.17881 1.3969-0.44201 1.8306-9e-3 3.678 1.2113 5.1772 0.79156 0.9718 0.91914 1.6232 0.95539 4.8772 0.0483 4.3498 0.33063 6.8578 1.4008 12.449 0.12525 0.65492 0.22783 1.3204 0.22783 1.4788 0 0.40539 0.27345 0.46481 1.0922 0.23698 0.39065-0.10848 0.75629-0.19729 0.81253-0.19729 0.0918 0 0.34617 1.3011 0.75013 3.8365l0.14128 0.88641-1.4564 1.4783 0.11426 0.60208c0.11335 0.59818 0.17469 0.75454 0.86191 2.1975l0.35838 0.75258h2.5063l-0.0717 0.51175c-0.26775 1.911-1.6799 3.7953-3.3629 4.4873-1.2828 0.52747-3.8038 0.587-4.696 0.11074zm-10.483-8.4948c2.452-0.44935 4.0461-1.5028 4.6407-3.0669 0.484-1.2734 0.19393-7.0906-0.39715-7.9646-0.90866-1.3436-3.7822-1.376-7.3452-0.0832-1.4014 0.50857-1.5722 0.58129-1.8848 0.80254-0.16373 0.11603-0.35731 0.21052-0.43021 0.21052-0.50914 0-2.5194 1.8423-3.1539 2.8903-1.3183 2.1777-0.76852 6.7451 0.8482 7.0468 1.5741 0.29367 6.4492 0.39742 7.7224 0.16403zm691.53 8.5648c-0.8511-0.18217-1.4798-0.52857-2.1691-1.1949-1.2231-1.1822-1.4726-1.9682-2.7173-8.5607-0.1311-0.69536-0.3454-1.7796-0.4758-2.4094s-0.2369-1.2524-0.2369-1.3835c0-0.13115-0.1066-0.75367-0.237-1.3835s-0.3492-1.7412-0.4861-2.4697c-0.1368-0.7285-0.353-1.8664-0.4796-2.5287-0.127-0.66228-0.3428-1.8002-0.4802-2.5286-0.1372-0.72851-0.3878-2.0289-0.5565-2.8899-0.296-1.5102-0.4787-2.4672-1.011-5.2981-0.1368-0.7285-0.3556-1.8399-0.4861-2.4697-0.1304-0.62986-0.237-1.2622-0.237-1.4053 0-0.14324-0.1005-0.71153-0.2234-1.2631-0.1228-0.55158-0.3458-1.6802-0.495-2.508-0.1493-0.8278-0.3738-2.0054-0.499-2.6168-0.915-4.4735 0.479-6.6548 4.2529-6.6548 2.2114 0 2.6294 0.42176 3.1029 3.1307 0.1448 0.82783 0.3912 2.2096 0.5477 3.0705s0.3993 2.2427 0.5396 3.0705c0.35 2.0659 0.6854 4.0249 0.9583 5.5991 0.1262 0.7285 0.3447 2.0019 0.4857 2.8297 0.943 5.5437 1.1779 6.9004 1.4492 8.3686 0.1221 0.66228 0.2581 1.5266 0.3016 1.9208 0.049 0.44685 0.1141 0.65087 0.1724 0.54183 0.09-0.16894 0.1443-0.38899 0.6044-2.4627 0.1176-0.52982 0.3341-1.5052 0.481-2.1674 0.147-0.66225 0.3753-1.6918 0.5072-2.2878 0.1319-0.59604 0.3643-1.6255 0.5167-2.2878 0.532-2.3147 0.9907-4.3655 1.5217-6.8033 0.1372-0.62914 0.347-1.5503 0.4666-2.047 0.1194-0.49671 0.2532-1.1115 0.2971-1.3662 0.1032-0.59962 0.6688-1.3742 1.2627-1.7284 0.9454-0.56379 1.3931-2.197 0.8365-3.0517-0.4085-0.62729-0.399-1.6745 0.019-2.3449 1.5573-2.4835 4.1527-2.568 5.4841-0.17839 0.5201 0.93362 1.2553 4.3479 1.2474 5.7934 0 0.22451 0.1051 1.3019 0.2366 2.3946 0.2438 2.0286 0.5342 4.5841 0.9718 8.5492 0.1353 1.2252 0.3788 3.3655 0.5412 4.7563 0.1626 1.3908 0.3587 3.113 0.4363 3.8273 0.1194 1.1002 0.3451 1.8953 0.3451 1.2155 0-0.11527 0.1043-0.53824 0.232-0.94027 0.1278-0.40203 0.3515-1.1374 0.4977-1.6341 0.1459-0.49667 0.396-1.3366 0.5554-1.8664 0.2755-0.91536 0.495-1.6599 1.0122-3.4317 0.1259-0.43045 0.3394-1.1619 0.4755-1.6255 0.6145-2.0968 0.7552-2.5774 0.9694-3.3113 0.1259-0.43049 0.3398-1.162 0.4755-1.6255 0.6102-2.082 0.7237-2.4715 1.0178-3.492 0.1716-0.59603 0.412-1.4088 0.5339-1.8062 0.1217-0.39738 0.3391-1.1289 0.4825-1.6255 0.3881-1.3434 0.8452-2.757 0.9661-2.9875 0.059-0.11188 0.3069-0.62011 0.5521-1.1295 1.3192-2.7426 3.7822-3.5573 5.9625-1.9721 1.0821 0.78679 1.4954 2.7469 0.9413 4.4635-0.107 0.33109-0.4506 1.4148-0.7639 2.4082s-0.6723 2.0708-0.7978 2.3942c-0.1255 0.32353-0.2283 0.68466-0.2283 0.80281 0 0.1183-0.1084 0.4676-0.2407 0.77658-0.1323 0.30916-0.2408 0.64157-0.2408 0.73901 0 0.0975-0.3144 0.54278-0.6992 0.98959-1.804 2.0961-2.6376 4.6165-2.3123 6.9919 0.1379 1.0088 0.093 1.2355-0.714 3.5614-0.4337 1.2504-0.7297 2.2185-0.7297 2.3864 0 0.0956-0.5856 1.1694-0.834 1.3577-1.8368 1.3926-2.6065 0.36662-2.942 2.8409-0.1425 1.0513 1.0434 2.3882 0.7385 4.1121l-0.4139 2.3405-0.5133 1.609c-0.2824 0.88494-0.6166 1.8736-0.7427 2.197-0.1263 0.32352-0.2295 0.68976-0.2295 0.81411 0 0.12434-0.1062 0.45577-0.2358 0.73651-0.1296 0.28082-0.3239 0.78138-0.4312 1.1125-0.6516 2.0071-1.953 3.9028-2.7933 4.0688-0.9253 0.18255-2.2228-0.31294-3.0897-1.1803-1.1642-1.165-1.4915-2.2056-2.1208-6.7416-0.1379-0.99338-0.3791-2.6732-0.5363-3.7328s-0.4024-2.7394-0.5449-3.7327c-0.1425-0.99341-0.3636-2.4596-0.4914-3.2582-0.1277-0.79862-0.2332-1.6656-0.2343-1.9266 0-0.71728-0.1716-0.87367-0.339-0.31446-0.078 0.25852-0.141 0.56168-0.141 0.67397 0 0.11225-0.1274 0.67499-0.2831 1.2504-0.1557 0.57536-0.4026 1.5609-0.5485 2.19s-0.3681 1.5774-0.4939 2.1072c-0.1258 0.52981-0.3394 1.4374-0.475 2.0169-0.1357 0.57947-0.3587 1.5277-0.4957 2.1072-0.3984 1.6841-0.683 2.8976-0.967 4.1241-1.1309 4.8833-2.9403 6.9508-5.587 6.384zm98.617 0.0389c-1.6736-0.24529-2.6505-0.9453-3.3338-2.3893l-0.399-0.84283 0.034-6.8033c0.019-3.7418 0.1165-10.027 0.2189-13.968s0.2336-9.8738 0.2914-13.185c0.092-5.2674 0.1334-6.126 0.3296-6.8635 0.6516-2.4524 1.8739-3.4852 4.1246-3.4852 2.3275 0 3.6102 1.1505 3.9864 3.5756 0.1357 0.87356-0.062 24.038-0.2127 24.895-0.041 0.23168-0.2363 0.74581-0.4348 1.1423-1.9817 3.9591-2.1041 8.5035-0.3402 12.632l0.485 1.1352-0.1844 0.64274c-0.1017 0.35339-0.2124 0.77825-0.2464 0.94383-0.3122 1.521-2.5171 2.8336-4.317 2.5698zm-133.54-0.28309c-0.7655-0.1954-1.2772-0.39364-1.913-0.74056-0.6848-0.37379-1.067-0.6-1.1948-0.70745-0.079-0.0661-0.5089-0.39213-0.9557-0.7242-3.0341-2.2549-6.029-6.5376-7.3192-10.467-1.7693-5.3883-1.9089-13.273-0.3005-16.981 0.4376-1.0091 0.6951-1.8394 0.9582-3.0906 0.3916-1.8613 2.8716-6.3002 4.8793-8.7333l0.9263-1.1225 1.1954-0.27326c1.9536-0.44637 3.7807-1.4304 5.4285-2.9238 0.4296-0.38925 0.9533-0.75474 1.1639-0.81211 0.6748-0.18406 4.1802 0.16328 5.1241 0.50759 0.2899 0.10583 0.601 0.192 0.6916 0.192 0.5364 0 3.2515 1.4211 4.2456 2.2222 2.035 1.64 3.3388 3.4247 4.6221 6.327 0.7138 1.6142 1.6523 5.3454 1.8323 7.2849 0.038 0.39738 0.1202 1.0747 0.1852 1.5052 0.065 0.43048 0.1523 2.2999 0.1943 4.1542 0.1583 6.988-0.9861 12.176-3.6042 16.336-1.3989 2.223-3.6449 4.7627-4.9608 5.6096-0.3311 0.21316-0.7079 0.46938-0.8373 0.5695-0.1292 0.10016-0.2834 0.18217-0.3428 0.18217-0.059 0-0.2555 0.10545-0.4364 0.23433-1.7336 1.2344-7.1928 2.0608-9.582 1.4505zm4.8767-8.2628c0.7609-0.22791 1.6279-0.20863 2.0158 0.0457 0.5001 0.32768 1.7709 0.28951 2.3501-0.0707 0.9145-0.56855 1.1064-1.1321 1.116-3.2772 0.01-1.6706 0.034-1.9245 0.2563-2.2982 0.136-0.23093 0.3654-0.79589 0.5096-1.2552 0.144-0.45933 0.3685-1.1674 0.4989-1.5734 0.1304-0.40604 0.237-0.87421 0.237-1.0404 0-0.1663 0.1096-0.83362 0.243-1.4833 0.3149-1.5296 0.4486-5.6095 0.2544-7.7558-0.7432-8.2185-3.0217-11.577-7.7418-11.413-2.5978 0.0907-4.7361 1.1952-5.6504 2.9186-0.1595 0.30085-0.3288 0.54682-0.376 0.54682-0.047 0-0.144 0.21581-0.2151 0.47947-0.077 0.28498-0.4134 0.81011-0.8298 1.2944-4.3255 5.0309-5.0286 11.692-1.8242 17.28 0.3319 0.57864 0.7597 1.5268 0.9511 2.107 0.9968 3.0233 3.0521 5.4196 4.8932 5.7052 0.6888 0.10696 2.6736-0.0189 3.3114-0.21052zm80.194 8.1416c-1.532-0.20599-5.1737-0.73417-5.6289-1.7814-1.7209-3.9587-0.9591-5.0283-4.9733-6.2382-0.9018-0.27175-1.8826-2.0571-2.4828-3.1168-0.262-0.46261-0.8428-1.6513-1.1767-2.4082-1.0655-2.4156-1.289-5.4616-0.7952-10.838 0.2249-2.448 0.3723-3.43 0.8039-5.3574 0.096-0.43049 0.2275-1.0265 0.291-1.3245 0.1739-0.81577 0.8872-2.9139 1.3506-3.9736 0.4045-0.925 1.218-2.5741 1.4255-2.8899 0.1088-0.16554 0.4222-0.65321 0.6965-1.0837 2.9698-4.6616 6.2909-7.5803 9.466-8.3189 4.1993-0.97689 9.4133 1.5029 12.838 6.1059 0.742 0.9972 1.1645 1.9328 1.6792 3.7182 0.7334 2.5443 1.0426 7.5843 0.7136 11.632-0.1209 1.4881-0.3915 3.3098-0.5091 3.4274-0.081 0.0809-1.4068 0.42859-2.9218 0.76645-0.6622 0.14778-1.6105 0.36812-2.1072 0.4896-0.4966 0.1217-1.4449 0.34318-2.1072 0.49213-0.6622 0.14891-1.6752 0.39734-2.2511 0.5517-0.576 0.1542-1.1325 0.28081-1.2368 0.28081s-0.5814 0.10621-1.0601 0.23623c-0.4788 0.12963-1.5207 0.37965-2.3154 0.55513-0.7947 0.17575-1.6849 0.3944-1.9781 0.48643-0.2933 0.0918-0.6455 0.16705-0.7827 0.16705s-0.6288 0.10356-1.0924 0.23131c-0.4635 0.12737-1.3758 0.35716-2.0271 0.51092l-1.1843 0.2793 0.077 0.6635c0.1236 1.0584 0.4234 2.4397 0.6121 2.8192 0.096 0.19238 0.1739 0.44652 0.1739 0.56485 0 0.1183 0.055 0.24945 0.1228 0.29103 0.068 0.0416 0.2649 0.35641 0.4387 0.69944 0.5819 1.1483 2.8953 3.167 4.0282 3.515 0.1576 0.0484 0.3413 0.13115 0.4075 0.18331 0.181 0.14325 2.0633 0.5729 2.92 0.66679 0.7441 0.0816 0.9793 0.0544 5.87-0.681 0.861-0.12926 1.6737-0.23735 1.8062-0.23962 0.2388-4e-3 0.8201-0.46802 4.214-3.3628 4.0833-3.4829 4.562-3.8592 4.7088-3.7019 0.574 0.61458 0.7881 3.3386 0.37 4.7073-0.2083 0.68081-1.1323 2.7252-1.2874 2.8478-0.042 0.034-0.2967 0.38733-0.566 0.78716-1.1154 1.6555-4.2093 4.7252-5.5326 5.4894-0.9305 0.53726-2.2785 1.1889-2.4611 1.1898-0.093 0-0.3183 0.0794-0.5023 0.17499-0.184 0.096-0.6173 0.23055-0.9632 0.29972-0.3459 0.0688-1.0084 0.20144-1.472 0.2948-1.0551 0.21203-4.5558 0.33184-5.5991 0.19162zm-4.6089-26.369c0.5446-0.0571 1.5742-0.18785 2.2878-0.28989 0.7137-0.10205 2.1645-0.29859 3.2242-0.43639 1.0596-0.13795 2.6852-0.35376 3.6123-0.48019 0.9272-0.12623 2.061-0.26381 2.5196-0.30576 1.17-0.10696 1.1204-0.0582 1.0045-0.9894-0.4553-3.6602-1.2403-7.1236-1.8209-8.0338-0.7603-1.1918-3.5081-2.9433-4.6244-2.9476-1.0687-4e-3 -2.7215 0.90122-4.1593 2.2783-0.4753 0.45517-0.8605 0.71135-1.2042 0.80073-2.6411 0.6869-4.0433 3.875-2.6577 6.0427 0.1391 0.21808 0.1512 0.41485 0.059 0.96329-0.064 0.37917-0.1523 1.3609-0.1969 2.1817l-0.08 1.4923 0.5233-0.0858c0.288-0.0473 0.969-0.13267 1.5136-0.19012zm30.317 26.379c-1.1321-0.14778-2.0275-0.82243-2.568-1.9344l-0.322-0.66228 0.026-5.3583c0.015-2.947 0.1356-9.7744 0.2702-15.172 0.1345-5.3975 0.3549-14.365 0.4899-19.928 0.1349-5.563 0.2604-10.467 0.2789-10.897 0.023-0.54486 0.1667-1.1319 0.4705-1.9318 1.2431-3.2722 1.2976-7.0262 0.1485-10.212-0.5374-1.4901-0.2819-3.2775 0.622-4.3518 1.3559-1.6114 5.0833-1.586 6.5147 0.0442 0.9938 1.1318 1.0013 1.2399 0.7816 11.214-0.083 3.7749-0.2596 11.903-0.3922 18.062s-0.3242 14.937-0.426 19.507l-0.1848 8.3084-0.2657 0.18029c-0.6357 0.43132-0.3761 2.1175-0.6708 2.6757-0.473 0.8962-1.5526 1.9135-1.0772 2.8144 0.3114 0.59063 1.5463 1.8553 1.8114 1.8553 0.1992 0 0.019 2.219-0.2539 3.0968-0.3916 1.2676-0.798 1.762-1.935 2.3537-0.3538 0.18406-2.1614 0.48401-2.5954 0.43064-0.066-8e-3 -0.3913-0.0503-0.7224-0.0934zm24.082-56.232c-2.8502-0.42576-4.8968-3.6268-4.1622-6.51 0.342-1.342 1.6544-3.0333 2.8181-3.6313 2.1866-1.1238 5.4619-0.26041 6.7702 1.785 0.5439 0.8502 0.4389 1.1495-0.5301 1.511-1.7171 0.64059-1.946 2.7789-0.4018 3.7538 1.5806 0.99775-0.3008 2.9661-2.989 3.1274-0.4967 0.0302-1.174 0.0151-1.5052-0.034zm-824.09-0.68689c-1.7209-0.37153-3.1684-1.5595-3.7615-3.0874-0.10855-0.27931-0.25437-0.58171-0.32421-0.6717-0.0698-0.0899-0.12892-0.68602-0.13145-1.3245-7e-3 -1.708 0.6446-3.1514 1.9053-4.2232 0.18936-0.161 0.42637-0.37492 0.52655-0.47497 0.806-0.80598 3.3654-1.0689 4.8073-0.49387 2.1012 0.83796 3.2698 2.4604 3.4821 4.8346l0.0827 0.92386-0.62945 0.58129c-0.3462 0.31975-0.31899 0.79998-0.54722 0.88026-0.9808 0.34507-1.9434 0.26683-2.1601 1.2847-0.0845 0.39685-0.53508 1.4965-0.70402 1.6191-0.40084 0.29064-1.5772 0.36094-2.5459 0.15193z" stop-color="#000000" style="-inkscape-stroke:none;font-variation-settings:normal"/>
 </g>
</svg>
